…
To begin, we'll calculate the median EPCAM expression levels for each cancer study type. We will create a summary table that includes the cancer study names and their corresponding median EPCAM values.


```r
# Calculate median EPCAM levels by cancer type
EPCAM_median <- tcga_cancer %>%
  group_by(study) %>%
  summarize(median_EPCAM = median(EPCAM))

# Display the summary table
EPCAM_median
```

```
## # A tibble: 32 x 2
##    study median_EPCAM
##    <chr>        <dbl>
##  1 ACC          4.83 
##  2 BLCA        81.1  
##  3 BRCA       162.   
##  4 CESC        75.9  
##  5 CHOL       251.   
##  6 COAD       778.   
##  7 DLBC         0.578
##  8 ESCA       189.   
##  9 GBM          0.307
## 10 HNSC        24.7  
## # i 22 more rows
```
…
