…
#### preparing the data 

Now, let's prepare our data for creating a boxplot to visualize gene expression changes between the two conditions. We will convert the gene expression data into a long format suitable for `ggplot2`:


```r
# Convert gene expression data to long format
tpm[differential_genes, ] %>%
  as.data.frame() %>%
  tibble::rownames_to_column(var = "gene") %>%
  tidyr::pivot_longer(-1, names_to = "sample", values_to = "tpm")
```

```
## # A tibble: 13,512 x 3
##    gene      sample                 tpm
##    <chr>     <chr>                <dbl>
##  1 LOC729737 01_SW_sgCTRL_Norm   0.0768
##  2 LOC729737 02_SW_sgCTRL_Norm   0.0985
##  3 LOC729737 11_SW_sgCTRL_Hyp    0.411 
##  4 LOC729737 12_SW_sgCTRL_Hyp    0.407 
##  5 NOC2L     01_SW_sgCTRL_Norm 128.    
##  6 NOC2L     02_SW_sgCTRL_Norm 124.    
##  7 NOC2L     11_SW_sgCTRL_Hyp   73.4   
##  8 NOC2L     12_SW_sgCTRL_Hyp   70.9   
##  9 PERM1     01_SW_sgCTRL_Norm   0.176 
## 10 PERM1     02_SW_sgCTRL_Norm   0.113 
## # i 13,502 more rows
```
…
