Chapter 9 Introduction to the tidyverse ecosystem | Master Real-world Bioinformatics analysis in R
…
9.5 Introducing dplyr: Your Data Wrangling Toolkit

In this lesson, we’ll delve into the world of the dplyr package in R, which offers a powerful and concise set of tools for working with data frames. As a biology student new to programming, dplyr will be your trusty companion for effortlessly managing, filtering, and summarizing biological data.

To master dplyr, it’s crucial to grasp its five core functions: mutate(), select(), filter(), summarise(), and arrange(). Each function serves a specific purpose in data manipulation.

9.5.1 Selecting Specific Columns

We will be working with the same tibble called tcga_data that has numerous columns, but you’re interested in extracting the “EPCAM” column along with other metadata columns. EPCAM, short for epithelial cellular adhesion molecule, is highly relevant in the context of epithelial cancer cells.

tcga_data %>%
  select(EPCAM, tcga.tcga_barcode:sample_type)

## # A tibble: 11,348 × 5
##    EPCAM tcga.tcga_barcode            tcga.cgc_sample_sample…¹ study sample_type
##    <dbl> <chr>                        <chr>                    <chr> <chr>      
##  1  4.52 TCGA-OR-A5KU-01A-11R-A29S-07 Primary Tumor            ACC   cancer     
##  2  9.53 TCGA-P6-A5OG-01A-22R-A29S-07 Primary Tumor            ACC   cancer     
##  3 42.4  TCGA-OR-A5K5-01A-11R-A29S-07 Primary Tumor            ACC   cancer     
##  4 16.3  TCGA-OR-A5K4-01A-11R-A29S-07 Primary Tumor            ACC   cancer     
##  5 12.5  TCGA-OR-A5LP-01A-11R-A29S-07 Primary Tumor            ACC   cancer     
##  6  2.43 TCGA-PK-A5H9-01A-11R-A29S-07 Primary Tumor            ACC   cancer     
##  7  3.74 TCGA-OR-A5LD-01A-11R-A29S-07 Primary Tumor            ACC   cancer     
##  8  4.08 TCGA-OR-A5JX-01A-11R-A29S-07 Primary Tumor            ACC   cancer     
##  9  2.84 TCGA-PK-A5H8-01A-11R-A29S-07 Primary Tumor            ACC   cancer     
## 10  3.61 TCGA-OR-A5J3-01A-11R-A29S-07 Primary Tumor            ACC   cancer     
## # ℹ 11,338 more rows
## # ℹ abbreviated name: ¹​tcga.cgc_sample_sample_type
…
The EPCAM column is the 16th column; tcga.tcga_barcode is the 23rd column;
sample_type is 25th column:

tcga_data %>%
  select(16, 23:25)

## # A tibble: 11,348 × 4
##    EPCAM tcga.cgc_sample_sample_type study sample_type
##    <dbl> <chr>                       <chr> <chr>      
##  1  4.52 Primary Tumor               ACC   cancer     
##  2  9.53 Primary Tumor               ACC   cancer     
##  3 42.4  Primary Tumor               ACC   cancer     
##  4 16.3  Primary Tumor               ACC   cancer     
##  5 12.5  Primary Tumor               ACC   cancer     
##  6  2.43 Primary Tumor               ACC   cancer     
##  7  3.74 Primary Tumor               ACC   cancer     
##  8  4.08 Primary Tumor               ACC   cancer     
##  9  2.84 Primary Tumor               ACC   cancer     
## 10  3.61 Primary Tumor               ACC   cancer     
## # ℹ 11,338 more rows

We can even mix the index with column names:

tcga_data %>%
  select(EPCAM, 23:25)

## # A tibble: 11,348 × 4
##    EPCAM tcga.cgc_sample_sample_type study sample_type
##    <dbl> <chr>                       <chr> <chr>      
##  1  4.52 Primary Tumor               ACC   cancer     
##  2  9.53 Primary Tumor               ACC   cancer     
##  3 42.4  Primary Tumor               ACC   cancer     
##  4 16.3  Primary Tumor               ACC   cancer     
##  5 12.5  Primary Tumor               ACC   cancer     
##  6  2.43 Primary Tumor               ACC   cancer     
##  7  3.74 Primary Tumor               ACC   cancer     
##  8  4.08 Primary Tumor               ACC   cancer     
##  9  2.84 Primary Tumor               ACC   cancer     
## 10  3.61 Primary Tumor               ACC   cancer     
## # ℹ 11,338 more rows
# save it to a new variable

tcga_data<- tcga_data %>%
  select(EPCAM, 23:25)

9.5.2 Adding New Columns

The mutate() function allows you to introduce new variables that are derived from existing ones. For instance, you can create a new column, “log2EPCAM,” containing the logarithm base-2 of the EPCAM values:

tcga_data<- tcga_data %>%
  mutate(log2EPCAM = log2(EPCAM))

tcga_data

## # A tibble: 11,348 × 5
##    EPCAM tcga.cgc_sample_sample_type study sample_type log2EPCAM
##    <dbl> <chr>                       <chr> <chr>           <dbl>
##  1  4.52 Primary Tumor               ACC   cancer           2.18
##  2  9.53 Primary Tumor               ACC   cancer           3.25
##  3 42.4  Primary Tumor               ACC   cancer           5.40
##  4 16.3  Primary Tumor               ACC   cancer           4.03
##  5 12.5  Primary Tumor               ACC   cancer           3.65
##  6  2.43 Primary Tumor               ACC   cancer           1.28
##  7  3.74 Primary Tumor               ACC   cancer           1.90
##  8  4.08 Primary Tumor               ACC   cancer           2.03
##  9  2.84 Primary Tumor               ACC   cancer           1.51
## 10  3.61 Primary Tumor               ACC   cancer           1.85
## # ℹ 11,338 more rows

9.5.3 Reordering Columns

If you want to rearrange the order of columns, you can again use select(). Here, we move the “log2EPCAM” column to the front while keeping all other columns intact:

tcga_data %>%
  select(EPCAM, log2EPCAM, everything())

## # A tibble: 11,348 × 5
##    EPCAM log2EPCAM tcga.cgc_sample_sample_type study sample_type
##    <dbl>     <dbl> <chr>                       <chr> <chr>      
##  1  4.52      2.18 Primary Tumor               ACC   cancer     
##  2  9.53      3.25 Primary Tumor               ACC   cancer     
##  3 42.4       5.40 Primary Tumor               ACC   cancer     
##  4 16.3       4.03 Primary Tumor               ACC   cancer     
##  5 12.5       3.65 Primary Tumor               ACC   cancer     
##  6  2.43      1.28 Primary Tumor               ACC   cancer     
##  7  3.74      1.90 Primary Tumor               ACC   cancer     
##  8  4.08      2.03 Primary Tumor               ACC   cancer     
##  9  2.84      1.51 Primary Tumor               ACC   cancer     
## 10  3.61      1.85 Primary Tumor               ACC   cancer     
## # ℹ 11,338 more rows

The everything() helper function denotes all other columns, ensuring your numeric columns are at the front.

9.5.4 Filtering Data

filter() is your go-to function for extracting observations that meet specific criteria. To isolate data only related to glioblastoma (GBM), you can apply the following filter:

tcga_data %>%
  filter(study == "GBM")

## # A tibble: 175 × 5
##     EPCAM tcga.cgc_sample_sample_type study sample_type log2EPCAM
##     <dbl> <chr>                       <chr> <chr>           <dbl>
##  1 0.329  Primary Tumor               GBM   cancer         -1.60 
##  2 0.152  Primary Tumor               GBM   cancer         -2.72 
##  3 0.0814 Primary Tumor               GBM   cancer         -3.62 
##  4 0.367  Recurrent Tumor             GBM   cancer         -1.45 
##  5 0.0614 Primary Tumor               GBM   cancer         -4.02 
##  6 0.350  Primary Tumor               GBM   cancer         -1.51 
##  7 0.165  Primary Tumor               GBM   cancer         -2.60 
##  8 0.0989 Primary Tumor               GBM   cancer         -3.34 
##  9 0.466  Primary Tumor               GBM   cancer         -1.10 
## 10 0.707  Recurrent Tumor             GBM   cancer         -0.500
## # ℹ 165 more rows

This code snippet retains only the rows corresponding to GBM in your dataset.

9.5.5 Summarizing Data

Suppose you want to calculate the average EPCAM expression for each cancer type in your dataset. You can utilize summarise() in conjunction with group_by():

tcga_data %>%
  group_by(study) %>%
  summarise(average_EPCAM = mean(EPCAM))

## # A tibble: 33 × 2
##    study average_EPCAM
##    <chr>         <dbl>
##  1 ACC          11.2  
##  2 BLCA        102.   
##  3 BRCA        177.   
##  4 CESC        166.   
##  5 CHOL        223.   
##  6 COAD        792.   
##  7 DLBC          2.61 
##  8 ESCA        273.   
##  9 GBM           0.623
## 10 HNSC         50.3  
## # ℹ 23 more rows

Here, the data is grouped by the “study” variable, and the summarise() function calculates the mean EPCAM value for each group.

9.5.6 Sorting Data

To sort your data frame based on a specific column, employ arrange(). For instance, you can order your dataset by the median level of EPCAM:

tcga_data %>%
  group_by(study) %>%
  summarise(average_EPCAM = mean(EPCAM),
            median_EPCAM = median(EPCAM)) %>%
  arrange(median_EPCAM)

## # A tibble: 33 × 3
##    study average_EPCAM median_EPCAM
##    <chr>         <dbl>        <dbl>
##  1 UVM           0.765       0.0583
##  2 SKCM          0.980       0.133 
##  3 SARC          2.87        0.224 
##  4 GBM           0.623       0.323 
##  5 DLBC          2.61        0.578 
##  6 LAML          3.14        0.595 
##  7 LGG           0.906       0.681 
##  8 MESO         11.3         1.14  
##  9 LIHC         31.2         1.22  
## 10 ACC          11.2         4.83  
## # ℹ 23 more rows

The default is arrange from the smallest to the biggest. Let’s reverse it by using the helper descending function desc:

tcga_data %>%
  group_by(study) %>%
  summarise(average_EPCAM = mean(EPCAM),
            median_EPCAM = median(EPCAM)) %>%
  arrange(desc(median_EPCAM))

## # A tibble: 33 × 3
##    study average_EPCAM median_EPCAM
##    <chr>         <dbl>        <dbl>
##  1 READ           834.         808.
##  2 COAD           792.         787.
##  3 THCA           350.         345.
##  4 UCEC           351.         337.
##  5 STAD           335.         306.
##  6 LUAD           307.         289.
##  7 PAAD           278.         265.
##  8 CHOL           223.         236.
##  9 OV             228.         207.
## 10 PRAD           199.         182.
## # ℹ 23 more rows
…
Here’s how you can achieve this:

# read in the data again
tcga_data <- readr::read_csv("~/Downloads/TCGA_cancer_genes_expression.csv")

# Group and nest the data
tcga_nest <- tcga_data %>%
  filter(sample_type == "cancer") %>%
  select(EPCAM, tcga.tcga_barcode:sample_type) %>%
  group_by(study) %>%
  tidyr::nest()

tcga_nest

## # A tibble: 32 × 2
## # Groups:   study [32]
##    study data                
##    <chr> <list>              
##  1 ACC   <tibble [79 × 4]>   
##  2 BLCA  <tibble [414 × 4]>  
##  3 BRCA  <tibble [1,127 × 4]>
##  4 CESC  <tibble [304 × 4]>  
##  5 CHOL  <tibble [36 × 4]>   
##  6 COAD  <tibble [504 × 4]>  
##  7 DLBC  <tibble [48 × 4]>   
##  8 ESCA  <tibble [184 × 4]>  
##  9 GBM   <tibble [170 × 4]>  
## 10 HNSC  <tibble [502 × 4]>  
## # ℹ 22 more rows

The tidyr::nest() function creates a list-column within your tibble, where each element of the list is a nested data frame. This is a powerful feature of tibbles, as they can contain tables within the table.

You can access the nested data using the $ sign, just like you would with a regular data frame, and use the double bracket to access the element. For example:

# Accessing the first nested data frame
first_nested_df <- tcga_nest$data[[1]]

first_nested_df

## # A tibble: 79 × 4
##    EPCAM tcga.tcga_barcode            tcga.cgc_sample_sample_type sample_type
##    <dbl> <chr>                        <chr>                       <chr>      
##  1  4.52 TCGA-OR-A5KU-01A-11R-A29S-07 Primary Tumor               cancer     
##  2  9.53 TCGA-P6-A5OG-01A-22R-A29S-07 Primary Tumor               cancer     
##  3 42.4  TCGA-OR-A5K5-01A-11R-A29S-07 Primary Tumor               cancer     
##  4 16.3  TCGA-OR-A5K4-01A-11R-A29S-07 Primary Tumor               cancer     
##  5 12.5  TCGA-OR-A5LP-01A-11R-A29S-07 Primary Tumor               cancer     
##  6  2.43 TCGA-PK-A5H9-01A-11R-A29S-07 Primary Tumor               cancer     
##  7  3.74 TCGA-OR-A5LD-01A-11R-A29S-07 Primary Tumor               cancer     
##  8  4.08 TCGA-OR-A5JX-01A-11R-A29S-07 Primary Tumor               cancer     
##  9  2.84 TCGA-PK-A5H8-01A-11R-A29S-07 Primary Tumor               cancer     
## 10  3.61 TCGA-OR-A5J3-01A-11R-A29S-07 Primary Tumor               cancer     
## # ℹ 69 more rows

In this example, first_nested_df contains the first nested data frame, which corresponds to one of the “study” groups.

You can add the names to the list column, and now you can access it by cancer type:

names(tcga_nest$data)<- tcga_nest$study

tcga_nest

## # A tibble: 32 × 2
## # Groups:   study [32]
##    study data                
##    <chr> <named list>        
##  1 ACC   <tibble [79 × 4]>   
##  2 BLCA  <tibble [414 × 4]>  
##  3 BRCA  <tibble [1,127 × 4]>
##  4 CESC  <tibble [304 × 4]>  
##  5 CHOL  <tibble [36 × 4]>   
##  6 COAD  <tibble [504 × 4]>  
##  7 DLBC  <tibble [48 × 4]>   
##  8 ESCA  <tibble [184 × 4]>  
##  9 GBM   <tibble [170 × 4]>  
## 10 HNSC  <tibble [502 × 4]>  
## # ℹ 22 more rows

tcga_nest$data[["ACC"]]

## # A tibble: 79 × 4
##    EPCAM tcga.tcga_barcode            tcga.cgc_sample_sample_type sample_type
##    <dbl> <chr>                        <chr>                       <chr>      
##  1  4.52 TCGA-OR-A5KU-01A-11R-A29S-07 Primary Tumor               cancer     
##  2  9.53 TCGA-P6-A5OG-01A-22R-A29S-07 Primary Tumor               cancer     
##  3 42.4  TCGA-OR-A5K5-01A-11R-A29S-07 Primary Tumor               cancer     
##  4 16.3  TCGA-OR-A5K4-01A-11R-A29S-07 Primary Tumor               cancer     
##  5 12.5  TCGA-OR-A5LP-01A-11R-A29S-07 Primary Tumor               cancer     
##  6  2.43 TCGA-PK-A5H9-01A-11R-A29S-07 Primary Tumor               cancer     
##  7  3.74 TCGA-OR-A5LD-01A-11R-A29S-07 Primary Tumor               cancer     
##  8  4.08 TCGA-OR-A5JX-01A-11R-A29S-07 Primary Tumor               cancer     
##  9  2.84 TCGA-PK-A5H8-01A-11R-A29S-07 Primary Tumor               cancer     
## 10  3.61 TCGA-OR-A5J3-01A-11R-A29S-07 Primary Tumor               cancer     
## # ℹ 69 more rows
…
We can stay in the original tibble by just adding the median to a new column with mutate():

tcga_nest %>%
  mutate(median_EPCAM = map_dbl(data, function(x) (median(x$EPCAM))))

## # A tibble: 32 × 3
## # Groups:   study [32]
##    study data                 median_EPCAM
##    <chr> <named list>                <dbl>
##  1 ACC   <tibble [79 × 4]>           4.83 
##  2 BLCA  <tibble [414 × 4]>         81.1  
##  3 BRCA  <tibble [1,127 × 4]>      162.   
##  4 CESC  <tibble [304 × 4]>         75.9  
##  5 CHOL  <tibble [36 × 4]>         251.   
##  6 COAD  <tibble [504 × 4]>        778.   
##  7 DLBC  <tibble [48 × 4]>           0.578
##  8 ESCA  <tibble [184 × 4]>        189.   
##  9 GBM   <tibble [170 × 4]>          0.307
## 10 HNSC  <tibble [502 × 4]>         24.7  
## # ℹ 22 more rows

of course, we can use group_by followed by summarise as shown above to get the same thing, but it demonstrates how we can combine map() function and list column to do powerful data analysis within a data frame.

tcga_data %>%
  filter(sample_type == "cancer") %>%
  select(EPCAM, tcga.tcga_barcode:sample_type) %>%
  group_by(study) %>%
  summarise(median_EPCAM = median(EPCAM))

## # A tibble: 32 × 2
##    study median_EPCAM
##    <chr>        <dbl>
##  1 ACC          4.83 
##  2 BLCA        81.1  
##  3 BRCA       162.   
##  4 CESC        75.9  
##  5 CHOL       251.   
##  6 COAD       778.   
##  7 DLBC         0.578
##  8 ESCA       189.   
##  9 GBM          0.307
## 10 HNSC        24.7  
## # ℹ 22 more rows

Read this https://dplyr.tidyverse.org/reference/summarise.html for more examples using group_by with summarise.

You can even nest by two columns:

tcga_data %>%
  select(EPCAM, tcga.tcga_barcode:sample_type) %>%
  group_by(study, sample_type) %>%
  tidyr::nest()

## # A tibble: 73 × 3
## # Groups:   study, sample_type [73]
##    study sample_type data                
##    <chr> <chr>       <list>              
##  1 ACC   cancer      <tibble [79 × 3]>   
##  2 BLCA  cancer      <tibble [414 × 3]>  
##  3 BLCA  normal      <tibble [19 × 3]>   
##  4 BRCA  cancer      <tibble [1,127 × 3]>
##  5 BRCA  normal      <tibble [112 × 3]>  
##  6 BRCA  metastatic  <tibble [7 × 3]>    
##  7 BRCA  <NA>        <tibble [10 × 3]>   
##  8 CESC  cancer      <tibble [304 × 3]>  
##  9 CESC  normal      <tibble [3 × 3]>    
## 10 CESC  metastatic  <tibble [2 × 3]>    
## # ℹ 63 more rows
…
The metadata is ready to be shaped into a long format.

9.8.4 Converting to a Tidy Data Frame

To fulfill the three tidy data rules, we will convert the metadata into a tidy data frame using the pivot_longer and pivot_wider functions:

# pivot it to long format
GSE176021_meta %>%
  pivot_longer(cols = -meta)

## # A tibble: 220 × 3
##    meta  name       value               
##    <chr> <chr>      <chr>               
##  1 id    GSM5352886 patientid: MD01-024 
##  2 id    GSM5352887 patientid: MD01-010 
##  3 id    GSM5352888 patientid: MD01-010 
##  4 id    GSM5352889 patientid: MD01-004 
##  5 id    GSM5352890 patientid: MD01-004 
##  6 id    GSM5352891 patientid: MD01-004 
##  7 id    GSM5352892 patientid: MD01-004 
##  8 id    GSM5352893 patientid: MD043-011
##  9 id    GSM5352894 patientid: MD043-011
## 10 id    GSM5352895 patientid: MD043-011
## # ℹ 210 more rows

# pivot to wide format
GSE176021_meta %>%
  pivot_longer(cols = -meta) %>%
  pivot_wider(names_from = meta, values_from = value)

## # A tibble: 110 × 3
##    name       id                   response                
##    <chr>      <chr>                <chr>                   
##  1 GSM5352886 patientid: MD01-024  response status: Non-MPR
##  2 GSM5352887 patientid: MD01-010  response status: MPR    
##  3 GSM5352888 patientid: MD01-010  response status: MPR    
##  4 GSM5352889 patientid: MD01-004  response status: Non-MPR
##  5 GSM5352890 patientid: MD01-004  response status: Non-MPR
##  6 GSM5352891 patientid: MD01-004  response status: Non-MPR
##  7 GSM5352892 patientid: MD01-004  response status: Non-MPR
##  8 GSM5352893 patientid: MD043-011 response status: Non-MPR
##  9 GSM5352894 patientid: MD043-011 response status: Non-MPR
## 10 GSM5352895 patientid: MD043-011 response status: Non-MPR
## # ℹ 100 more rows
…
9.14.1 Calculating Median EPCAM Levels by Cancer Type

The median EPCAM expression levels represent the middle value of EPCAM gene expression measurements for different types of cancer studies, providing a central measure to understand how this gene behaves in each type of cancer.

To begin, we’ll calculate the median EPCAM expression levels for each cancer study type. We will create a summary table that includes the cancer study names and their corresponding median EPCAM values.

# Calculate median EPCAM levels by cancer type
EPCAM_median <- tcga_cancer %>%
  group_by(study) %>%
  summarize(median_EPCAM = median(EPCAM))

# Display the summary table
EPCAM_median

## # A tibble: 32 × 2
##    study median_EPCAM
##    <chr>        <dbl>
##  1 ACC          4.83 
##  2 BLCA        81.1  
##  3 BRCA       162.   
##  4 CESC        75.9  
##  5 CHOL       251.   
##  6 COAD       778.   
##  7 DLBC         0.578
##  8 ESCA       189.   
##  9 GBM          0.307
## 10 HNSC        24.7  
## # ℹ 22 more rows
…
